com/milosz/sikora/ship/decorator/ArmouredShipDecorator.class
com/milosz/sikora/Main.class
com/milosz/sikora/ship/Ship.class
com/milosz/sikora/ship/decorator/SmallShipDecorator.class
com/milosz/sikora/ship/HospitalShip.class
com/milosz/sikora/ship/decorator/SizeShipDecorator.class
com/milosz/sikora/ship/decorator/HeavyArmouredShipDecorator.class
com/milosz/sikora/ship/FishShip.class
com/milosz/sikora/ship/Warship.class
com/milosz/sikora/ship/decorator/NotArmouredShipDecorator.class
com/milosz/sikora/ship/decorator/BigShipDecorator.class
